…
# Read raw bytes of Steelhead.csv
raw <- read_data_entity(packageId = "edi.1047.1", entityId = res$entityId[4])
head(raw)
#> [1] ef bb bf 44 61 74

# Parse with .csv reader
data <- readr::read_csv(file = raw)
data
#> # A tibble: 2,926 x 14
#>    Date   trapVisitID subSiteName catchRawID releaseID commonName 
#>    <chr>        <dbl> <chr>            <dbl>     <dbl> <chr>      
#>  1 1/12/~         326 North Chan~      32123         0 Steelhead ~
#>  2 1/14/~         336 North Chan~      33980         0 Steelhead ~
#>  3 1/15/~         337 North Chan~      32683         0 Steelhead ~
#>  4 1/16/~         339 North Chan~      32971         0 Steelhead ~
#>  5 1/17/~         341 North Chan~      33104         0 Steelhead ~
#>  6 1/18/~         342 North Chan~      33304         0 Steelhead ~
#>  7 1/19/~         343 North Chan~      33432         0 Steelhead ~
#>  8 1/21/~         349 North Chan~      34083         0 Steelhead ~
#>  9 1/21/~         349 North Chan~      34084         0 Steelhead ~
#> 10 1/23/~         351 North Chan~      34384         0 Steelhead ~
#> # ... with 2,916 more rows, and 8 more variables:
#> #   lifeStage <chr>, forkLength <dbl>, weight <dbl>, n <dbl>,
#> #   mort <chr>, fishOrigin <chr>, markType <chr>,
#> #   CatchRaw.comments <chr>
```
…
