Read data entity — read_data_entity • EDIutils
…
# Read raw bytes of the 3rd data entity
raw <- read_data_entity(packageId = "edi.1047.1", entityId = res$entityId[3])
head(raw)
#> [1] ef bb bf 44 61 74

# Parse with .csv reader
data <- readr::read_csv(file = raw)
data
#> # A tibble: 105,325 x 20
#> Date   trapVisitID subSiteName  catchRawID releaseID commonName     n
#> <chr>        <dbl> <chr>             <dbl>     <dbl> <chr>      <dbl>
#>   1 1/8/2~         330 North Chann~      32409         0 Chinook s~     1
#> 2 1/8/2~         330 North Chann~      32412         0 Chinook s~     1
#> 3 1/8/2~         330 North Chann~      32410         0 Chinook s~     1
#> 4 1/8/2~         330 North Chann~      32408         0 Chinook s~     1
#> 5 1/8/2~         330 North Chann~      32406         0 Chinook s~     1
#> 6 1/8/2~         322 North Chann~      31958         0 Chinook s~     1
#> 7 1/8/2~         322 North Chann~      31975         0 Chinook s~     1
#> 8 1/8/2~         322 North Chann~      31974         0 Chinook s~     1
#> 9 1/8/2~         322 North Chann~      31973         0 Chinook s~     1
#> 10 1/8/2~         322 North Chann~      31972         0 Chinook s~     1
#> # ... with 105,315 more rows, and 13 more variables:
#> #   atCaptureRun <chr>, finalRun <chr>, finalRunMethod <chr>,
#> #   lifeStage <chr>, forkLength <dbl>, weight <dbl>, mort <chr>,
#> #   fishOrigin <chr>, markType <chr>, CatchRaw.comments <chr>,
#> #   specimenTypeID <dbl>, physicalSpecimenCode <chr>,
#> #   Specimen.comments <lgl>
…
