Search and Access Data • EDIutils
…
# Download Steelhead.csv in raw bytes. Use the entityName and entityID as keys.
entityName <- "Steelhead.csv"
entityId <- res$entityId[res$entityName == entityName]
raw <- read_data_entity(packageId, entityId)
head(raw)
#> [1] ef bb bf 44 61 74

Common formats are easily parsed.

# These data have a common format are simply parsed
data <- readr::read_csv(file = raw)
data
#> # A tibble: 2,926 x 14
#>    Date   trapVisitID subSiteName catchRawID releaseID commonName 
#>    <chr>        <dbl> <chr>            <dbl>     <dbl> <chr>      
#>  1 1/12/~         326 North Chan~      32123         0 Steelhead ~
#>  2 1/14/~         336 North Chan~      33980         0 Steelhead ~
#>  3 1/15/~         337 North Chan~      32683         0 Steelhead ~
#>  4 1/16/~         339 North Chan~      32971         0 Steelhead ~
#>  5 1/17/~         341 North Chan~      33104         0 Steelhead ~
#>  6 1/18/~         342 North Chan~      33304         0 Steelhead ~
#>  7 1/19/~         343 North Chan~      33432         0 Steelhead ~
#>  8 1/21/~         349 North Chan~      34083         0 Steelhead ~
#>  9 1/21/~         349 North Chan~      34084         0 Steelhead ~
#> 10 1/23/~         351 North Chan~      34384         0 Steelhead ~
#> # ... with 2,916 more rows, and 8 more variables:
#> #   lifeStage <chr>, forkLength <dbl>, weight <dbl>, n <dbl>,
#> #   mort <chr>, fishOrigin <chr>, markType <chr>,
#> #   CatchRaw.comments <chr>
…
See the emld library for more on working with EML as a list or JSON-LD. See the xml2 library for working with EML as XML.

# Read the same data entity but using the physical metadata
library(xml2)
eml <- read_metadata(packageId)
meta <- read_metadata_entity(packageId, entityId)
fieldDelimiter <- xml_text(xml_find_first(meta, ".//physical//fieldDelimiter"))
numHeaderLines <- xml_double(xml_find_first(meta, ".//physical//numHeaderLines"))
data <- readr::read_delim(
  file = raw, 
  delim = fieldDelimiter, 
  skip = numHeaderLines-1)
data
#> # A tibble: 2,926 x 14
#>    Date   trapVisitID subSiteName catchRawID releaseID commonName 
#>    <chr>        <dbl> <chr>            <dbl>     <dbl> <chr>      
#>  1 1/12/~         326 North Chan~      32123         0 Steelhead ~
#>  2 1/14/~         336 North Chan~      33980         0 Steelhead ~
#>  3 1/15/~         337 North Chan~      32683         0 Steelhead ~
#>  4 1/16/~         339 North Chan~      32971         0 Steelhead ~
#>  5 1/17/~         341 North Chan~      33104         0 Steelhead ~
#>  6 1/18/~         342 North Chan~      33304         0 Steelhead ~
#>  7 1/19/~         343 North Chan~      33432         0 Steelhead ~
#>  8 1/21/~         349 North Chan~      34083         0 Steelhead ~
#>  9 1/21/~         349 North Chan~      34084         0 Steelhead ~
#> 10 1/23/~         351 North Chan~      34384         0 Steelhead ~
#> # ... with 2,916 more rows, and 8 more variables:
#> #   lifeStage <chr>, forkLength <dbl>, weight <dbl>, n <dbl>,
#> #   mort <chr>, fishOrigin <chr>, markType <chr>,
#> #   CatchRaw.comments <chr>
…
