Read data entity — read_data_entity • EDIutils
…
#> indexed 3.00B in  0s, ?indexed 2.15GB in  0s, 2.15GB/s                                                                              
#> Warning: One or more parsing issues, see `problems()` for details
#> Rows: 105325 Columns: 20
#> -- Column specification --------------------------------------------------------
#> Delimiter: ","
#> chr (12): Date, subSiteName, commonName, atCaptureRun, finalRun, finalRunMet...
#> dbl  (7): trapVisitID, catchRawID, releaseID, n, forkLength, weight, specime...
#> lgl  (1): Specimen.comments
#> 
#> i Use `spec()` to retrieve the full column specification for this data.
#> i Specify the column types or set `show_col_types = FALSE` to quiet this message.
data

#> # A tibble: 105,325 x 20
#>    Date          trapVisitID subSiteName   catchRawID releaseID commonName     n
#>    <chr>               <dbl> <chr>              <dbl>     <dbl> <chr>      <dbl>
#>  1 1/8/2014 0:00         330 North Channe~      32409         0 Chinook s~     1
#>  2 1/8/2014 0:00         330 North Channe~      32412         0 Chinook s~     1
#>  3 1/8/2014 0:00         330 North Channe~      32410         0 Chinook s~     1
#>  4 1/8/2014 0:00         330 North Channe~      32408         0 Chinook s~     1
#>  5 1/8/2014 0:00         330 North Channe~      32406         0 Chinook s~     1
#>  6 1/8/2014 0:00         322 North Channe~      31958         0 Chinook s~     1
#>  7 1/8/2014 0:00         322 North Channe~      31975         0 Chinook s~     1
#>  8 1/8/2014 0:00         322 North Channe~      31974         0 Chinook s~     1
#>  9 1/8/2014 0:00         322 North Channe~      31973         0 Chinook s~     1
#> 10 1/8/2014 0:00         322 North Channe~      31972         0 Chinook s~     1
#> # ... with 105,315 more rows, and 13 more variables: atCaptureRun <chr>,
#> #   finalRun <chr>, finalRunMethod <chr>, lifeStage <chr>, forkLength <dbl>,
#> #   weight <dbl>, mort <chr>, fishOrigin <chr>, markType <chr>,
#> #   CatchRaw.comments <chr>, specimenTypeID <dbl>, physicalSpecimenCode <chr>,
#> #   Specimen.comments <lgl>
…
